<?xml version='1.0' encoding='UTF-8'?>
<!---11.1-->
<svg height='28.1pt' version='1.1' viewBox='197.5 70.2 78.3 28.1' width='78.3pt' xmlns='http://www.w3.org/2000/svg' xmlns:xlink='http://www.w3.org/1999/xlink'>
<defs>
<path d='M7.2 -2.5C7.3 -2.5 7.5 -2.5 7.5 -2.7S7.3 -2.9 7.2 -2.9H1.3C1.1 -2.9 0.9 -2.9 0.9 -2.7S1.1 -2.5 1.3 -2.5H7.2Z' id='g1-0'/>
<path d='M2.1 -2.7C2.1 -3 1.8 -3.3 1.5 -3.3S0.9 -3 0.9 -2.7S1.2 -2.1 1.5 -2.1S2.1 -2.4 2.1 -2.7Z' id='g1-1'/>
<path d='M4.2 9.3L2.3 5.1C2.2 4.9 2.2 4.9 2.2 4.9C2.1 4.9 2.1 4.9 2 5L0.9 5.8C0.8 5.9 0.8 5.9 0.8 5.9C0.8 6 0.8 6.1 0.9 6.1C1 6.1 1.2 5.9 1.3 5.8C1.3 5.8 1.5 5.6 1.6 5.6L3.8 10.3C3.8 10.4 3.9 10.4 4 10.4C4.2 10.4 4.2 10.4 4.3 10.2L9.2 0C9.3 -0.2 9.3 -0.2 9.3 -0.2C9.3 -0.3 9.2 -0.4 9.1 -0.4C9 -0.4 8.9 -0.4 8.8 -0.2L4.2 9.3Z' id='g1-112'/>
<use id='g11-49' xlink:href='#g3-49'/>
<use id='g11-50' xlink:href='#g3-50'/>
<use id='g11-53' xlink:href='#g3-53'/>
<path d='M7.5 -3.6C7.6 -3.6 7.8 -3.6 7.8 -3.8S7.6 -4 7.5 -4H1C0.8 -4 0.6 -4 0.6 -3.8S0.8 -3.6 1 -3.6H7.5ZM7.5 -1.4C7.6 -1.4 7.8 -1.4 7.8 -1.7S7.6 -1.9 7.5 -1.9H1C0.8 -1.9 0.6 -1.9 0.6 -1.7S0.8 -1.4 1 -1.4H7.5Z' id='g12-61'/>
<path d='M3.2 -7.3L1.2 -6.4V-6.2C1.3 -6.3 1.5 -6.3 1.5 -6.3C1.7 -6.4 1.9 -6.4 2 -6.4C2.2 -6.4 2.3 -6.3 2.3 -5.9V-1C2.3 -0.7 2.2 -0.4 2.1 -0.3C1.9 -0.2 1.7 -0.2 1.3 -0.2V0H4.3V-0.2C3.4 -0.2 3.2 -0.3 3.2 -0.8V-7.3L3.2 -7.3Z' id='g3-49'/>
<path d='M5.2 -1.5L5 -1.5C4.6 -0.9 4.5 -0.8 4 -0.8H1.4L3.2 -2.7C4.2 -3.7 4.6 -4.6 4.6 -5.4C4.6 -6.5 3.7 -7.3 2.6 -7.3C2 -7.3 1.4 -7.1 1 -6.7C0.7 -6.3 0.5 -6 0.3 -5.2L0.6 -5.1C1 -6.2 1.4 -6.5 2.1 -6.5C3.1 -6.5 3.7 -5.9 3.7 -5C3.7 -4.2 3.2 -3.2 2.3 -2.2L0.3 -0.1V0H4.6L5.2 -1.5Z' id='g3-50'/>
<path d='M2 -6.3H4.1C4.3 -6.3 4.3 -6.4 4.3 -6.4L4.8 -7.4L4.7 -7.5C4.5 -7.2 4.4 -7.2 4.2 -7.2H1.9L0.7 -4.6C0.7 -4.6 0.7 -4.6 0.7 -4.6C0.7 -4.5 0.7 -4.5 0.8 -4.5C1.2 -4.5 1.6 -4.4 2.1 -4.3C3.3 -3.9 3.9 -3.2 3.9 -2.1C3.9 -1.1 3.2 -0.2 2.4 -0.2C2.2 -0.2 2 -0.3 1.6 -0.6C1.3 -0.8 1 -0.9 0.8 -0.9C0.5 -0.9 0.3 -0.8 0.3 -0.5C0.3 -0.1 0.9 0.2 1.7 0.2C2.6 0.2 3.4 -0.1 3.9 -0.7C4.4 -1.2 4.6 -1.8 4.6 -2.6C4.6 -3.4 4.4 -3.9 3.9 -4.5C3.4 -4.9 2.8 -5.2 1.5 -5.4L2 -6.3Z' id='g3-53'/>
<path d='M5.1 -1.3C4.5 -0.5 4.3 -0.4 4.2 -0.4C4.1 -0.4 4 -0.5 4 -0.6C4 -0.7 4.2 -1.4 4.3 -2C4.7 -3 4.9 -3.8 4.9 -4.1C4.9 -4.5 4.6 -4.8 4.2 -4.8C3.4 -4.8 2.7 -4.1 1.7 -2.5L3 -7.4L2.9 -7.4C2.3 -7.3 1.9 -7.2 1.2 -7.1V-7H1.5C1.5 -7 1.5 -7 1.5 -7C1.7 -7 1.9 -6.9 1.9 -6.7S1.9 -6.3 1.8 -6C1.8 -6 1.7 -5.8 1.7 -5.6L0.2 0H1C1.5 -1.7 1.6 -2 2 -2.7C2.6 -3.6 3.3 -4.2 3.7 -4.2C3.9 -4.2 4 -4.1 4 -4C4 -3.9 4 -3.8 3.9 -3.6L3.3 -1.4C3.2 -0.8 3.1 -0.5 3.1 -0.4C3.1 -0.1 3.3 0.1 3.6 0.1C4.2 0.1 4.5 -0.2 5.2 -1.1L5.1 -1.3Z' id='g8-104'/>
<path d='M2.1 -0.6C2.1 -0.9 1.8 -1.2 1.5 -1.2S0.9 -0.9 0.9 -0.6S1.2 0 1.5 0S2.1 -0.3 2.1 -0.6Z' id='g7-58'/>
</defs>
<g id='page1'>

<use x='198.9' xlink:href='#g8-104' y='87.1'/>
<use x='206.8' xlink:href='#g12-61' y='87.1'/>
<use x='218.9' xlink:href='#g11-50' y='79.7'/>
<use x='225.9' xlink:href='#g1-1' y='79.7'/>
<use x='230.4' xlink:href='#g11-49' y='79.7'/>
<rect height='0.4' width='17' x='218.9' y='84.2'/>
<use x='220.1' xlink:href='#g1-112' y='86.8'/>
<rect height='0.4' width='5.5' x='229.2' y='86.3'/>
<use x='229.2' xlink:href='#g11-53' y='95.9'/>
<use x='239.5' xlink:href='#g12-61' y='87.1'/>
<use x='251.6' xlink:href='#g11-50' y='79.7'/>
<use x='257' xlink:href='#g1-112' y='70.6'/>
<rect height='0.4' width='5.5' x='266.1' y='70.2'/>
<use x='266.1' xlink:href='#g11-53' y='79.7'/>
<rect height='0.4' width='20' x='251.6' y='84.2'/>
<use x='258.9' xlink:href='#g11-53' y='94.6'/>
<use x='272.8' xlink:href='#g7-58' y='87.1'/>
</g>
</svg>